{
    "KPackageStructure": "Plasma/LayoutTemplate",
    "KPlugin": {
        "Authors": [
            {
                "Email": "notmart@gmail.com",
                "Name": "Marco Martin",
                "Name[ar]": "Marco Martin",
                "Name[az]": "Marco Martin",
                "Name[ca]": "Marco Martin",
                "Name[cs]": "Marco Martin",
                "Name[de]": "Marco Martin",
                "Name[en_GB]": "Marco Martin",
                "Name[es]": "Marco Martin",
                "Name[eu]": "Marco Martin",
                "Name[fi]": "Marco Martin",
                "Name[fr]": "Marco Martin",
                "Name[hu]": "Marco Martin",
                "Name[ia]": "Marco Martin",
                "Name[id]": "Marco Martin",
                "Name[it]": "Marco Martin",
                "Name[ko]": "Marco Martin",
                "Name[lt]": "Marco Martin",
                "Name[nl]": "Marco Martin",
                "Name[nn]": "Marco Martin",
                "Name[pa]": "ਮਾਰਕੋ ਮਾਰਟਿਨ",
                "Name[pl]": "Marco Martin",
                "Name[pt]": "Marco Martin",
                "Name[pt_BR]": "Marco Martin",
                "Name[ro]": "Marco Martin",
                "Name[ru]": "Marco Martin",
                "Name[sk]": "Marco Martin",
                "Name[sl]": "Marco Martin",
                "Name[sv]": "Marco Martin",
                "Name[ta]": "மார்க்கோ மார்ட்டின்",
                "Name[tr]": "Marco Martin",
                "Name[uk]": "Marco Martin",
                "Name[vi]": "Marco Martin",
                "Name[x-test]": "xxMarco Martinxx",
                "Name[zh_CN]": "Marco Martin"
            }
        ],
        "Name": "Layout Template",
        "Name[ar]": "قالب التخطيط",
        "Name[az]": "Şablon Qatları",
        "Name[bs]": "Predložak rasporeda",
        "Name[ca@valencia]": "Plantilla de disposició",
        "Name[ca]": "Plantilla de disposició",
        "Name[cs]": "Šablona rozložení",
        "Name[da]": "Layout-skabelon",
        "Name[de]": "Layout-Vorlage",
        "Name[el]": "Πρότυπο διάταξης",
        "Name[en_GB]": "Layout Template",
        "Name[es]": "Plantilla de distribución",
        "Name[et]": "Paigutusemall",
        "Name[eu]": "Diseinu-txantiloia",
        "Name[fi]": "Asettelumallipohja",
        "Name[fr]": "Modèle de mise en page",
        "Name[gl]": "Modelo de disposición",
        "Name[he]": "תבנית פריסה",
        "Name[hi]": "ख़ाका नमूना",
        "Name[hu]": "Elrendezéssablon",
        "Name[ia]": "Patrono de disposition (layout-template)",
        "Name[id]": "Templat Tataletak",
        "Name[is]": "Sniðmát framsetningar",
        "Name[it]": "Modello di disposizione",
        "Name[ja]": "レイアウトテンプレート",
        "Name[ko]": "레이아웃 템플릿",
        "Name[lt]": "Išdėstymo šablonas",
        "Name[ml]": "വിന്യാസ ശിലാഫലകം",
        "Name[nb]": "Utformingsmal",
        "Name[nds]": "Anornen-Vörlaag",
        "Name[nl]": "Indelingssjabloon",
        "Name[nn]": "Utformingsmal",
        "Name[pa]": "ਲੇਆਉਟ ਟੈਪਲੇਟ",
        "Name[pl]": "Szablon układu",
        "Name[pt]": "Modelo de Disposição",
        "Name[pt_BR]": "Modelo de layout",
        "Name[ro]": "Șablon de aranjament",
        "Name[ru]": "Шаблон размещения",
        "Name[sk]": "Šablóna rozloženia",
        "Name[sl]": "Predloga razporeda",
        "Name[sr@ijekavian]": "Шаблон распореда",
        "Name[sr@ijekavianlatin]": "Šablon rasporeda",
        "Name[sr@latin]": "Šablon rasporeda",
        "Name[sr]": "Шаблон распореда",
        "Name[sv]": "Layoutmall",
        "Name[ta]": "தளவமைப்பு வார்ப்புரு",
        "Name[tr]": "Yerleşim Şablonu",
        "Name[uk]": "Шаблон компонування",
        "Name[vi]": "Bản mẫu bố cục",
        "Name[x-test]": "xxLayout Templatexx",
        "Name[zh_CN]": "布局模板",
        "Name[zh_TW]": "佈局樣本",
        "Version": "1"
    },
    "X-KDE-ParentApp": "org.kde.plasmashell"
}
