{
    "KPackageStructure": "Plasma/Shell",
    "KPlugin": {
        "Authors": [
            {
                "Email": "notmart@gmail.com",
                "Name": "Marco Martin",
                "Name[ar]": "Marco Martin",
                "Name[az]": "Marco Martin",
                "Name[ca]": "Marco Martin",
                "Name[cs]": "Marco Martin",
                "Name[de]": "Marco Martin",
                "Name[en_GB]": "Marco Martin",
                "Name[es]": "Marco Martin",
                "Name[eu]": "Marco Martin",
                "Name[fi]": "Marco Martin",
                "Name[fr]": "Marco Martin",
                "Name[hu]": "Marco Martin",
                "Name[ia]": "Marco Martin",
                "Name[id]": "Marco Martin",
                "Name[it]": "Marco Martin",
                "Name[ko]": "Marco Martin",
                "Name[lt]": "Marco Martin",
                "Name[nl]": "Marco Martin",
                "Name[nn]": "Marco Martin",
                "Name[pa]": "ਮਾਰਕੋ ਮਾਰਟਿਨ",
                "Name[pl]": "Marco Martin",
                "Name[pt]": "Marco Martin",
                "Name[pt_BR]": "Marco Martin",
                "Name[ro]": "Marco Martin",
                "Name[ru]": "Marco Martin",
                "Name[sk]": "Marco Martin",
                "Name[sl]": "Marco Martin",
                "Name[sv]": "Marco Martin",
                "Name[ta]": "மார்க்கோ மார்ட்டின்",
                "Name[tr]": "Marco Martin",
                "Name[uk]": "Marco Martin",
                "Name[vi]": "Marco Martin",
                "Name[x-test]": "xxMarco Martinxx",
                "Name[zh_CN]": "Marco Martin"
            }
        ],
        "Name": "Plasma Shell",
        "Name[ar]": "طرفية بلازما",
        "Name[ast]": "Shell de Plasma",
        "Name[az]": "Plasma üz qabığı",
        "Name[bs]": "Plazma školjka",
        "Name[ca@valencia]": "Intèrpret d'ordres de Plasma",
        "Name[ca]": "Intèrpret d'ordres del Plasma",
        "Name[cs]": "Shell Plasmy",
        "Name[da]": "Plasma-skal",
        "Name[de]": "Plasma-Umgebung",
        "Name[el]": "Κέλυφος Plasma",
        "Name[en_GB]": "Plasma Shell",
        "Name[es]": "Intérprete de Plasma",
        "Name[et]": "Plasma shell",
        "Name[eu]": "Plasma-ingurunea",
        "Name[fi]": "Plasma-käyttöliittymä",
        "Name[fr]": "Environnement Plasma",
        "Name[gl]": "Shell de Plasma",
        "Name[hi]": "प्लाज़्मा शेल",
        "Name[hu]": "Plasma felület",
        "Name[ia]": "Plasma Shell (Shell de Plasma)",
        "Name[id]": "Shell Plasma",
        "Name[is]": "Plasma skel",
        "Name[it]": "Shell di Plasma",
        "Name[ja]": "Plasma シェル",
        "Name[ko]": "Plasma 셸",
        "Name[lt]": "Plasma apvalkalas",
        "Name[lv]": "Plasma čaula",
        "Name[ml]": "പ്ലാസ്മ ഷെൽ",
        "Name[nb]": "Plasma-skall",
        "Name[nds]": "Plasma-Konsool",
        "Name[nl]": "Plasma Shell",
        "Name[nn]": "Plasma-skal",
        "Name[pa]": "ਪਲਾਜ਼ਮਾ ਸ਼ੈੱਲ",
        "Name[pl]": "Powłoka Plazmy",
        "Name[pt]": "Consola do Plasma",
        "Name[pt_BR]": "Plasma Shell",
        "Name[ro]": "Învelișul Plasma",
        "Name[ru]": "Оболочка Plasma",
        "Name[sk]": "Plasma Shell",
        "Name[sl]": "Lupina za Plasmo",
        "Name[sr@ijekavian]": "Плазма шкољка",
        "Name[sr@ijekavianlatin]": "Plasma školjka",
        "Name[sr@latin]": "Plasma školjka",
        "Name[sr]": "Плазма шкољка",
        "Name[sv]": "Plasma-skal",
        "Name[ta]": "பிளாஸ்மா நிரல்",
        "Name[tr]": "Plasma Kabuğu",
        "Name[uk]": "Оболонка Плазми",
        "Name[vi]": "Hệ vỏ Plasma",
        "Name[x-test]": "xxPlasma Shellxx",
        "Name[zh_CN]": "Plasma 外壳",
        "Name[zh_TW]": "Plasma Shell",
        "Version": "1"
    },
    "X-KDE-ParentApp": "org.kde.plasmashell"
}
