{
    "KPlugin": {
        "Description": "Provides the system's time zone to applications",
        "Description[ar]": "يوفّر منطقة النظام الزمنية للتطبيقات",
        "Description[az]": "Tətbiqlərə sistemin saat qurşağını tətbiq edir",
        "Description[ca]": "Proporciona la zona horària del sistema a les aplicacions",
        "Description[cs]": "Poskytuje systémová časová pásma aplikacím",
        "Description[de]": "Die Systemzeitzone den Anwendungen zur Verfügung stellen",
        "Description[en_GB]": "Provides the system's time zone to applications",
        "Description[es]": "Proporciona la zona horaria del sistema a las aplicaciones",
        "Description[eu]": "Aplikazioei sistemaren ordu-eremua adierazten die",
        "Description[fi]": "Tarjoaa ohjelmille järjestelmän aikavyöhyketiedon",
        "Description[fr]": "Fournit le fuseau horaire du système aux applications.",
        "Description[hu]": "A rendszer időzónájának biztosítása alkalmazásokhoz",
        "Description[ia]": "Il forni le fuso horari de systema al applicationes",
        "Description[id]": "Menyediakan zona waktu sistem untuk aplikasi",
        "Description[it]": "Fornisce il fuso orario di sistema alle applicazioni",
        "Description[ko]": "프로그램에 시스템 시간대 정보 제공",
        "Description[lt]": "Pateikia programoms sistemos laiko juostą",
        "Description[nl]": "Levert de tijdzone van het systeem aan applicaties",
        "Description[nn]": "Gjev programma tilgang til systemtidssone",
        "Description[pa]": "ਸਿਸਟਮ ਦਾ ਸਮਾਂ ਖੇਤਰ ਐਪਲੀਕੇਸ਼ਨਾਂ ਨੂੰ ਦਿੰਦਾ ਹੈ",
        "Description[pl]": "Udostępnia systemową strefę czasową programom",
        "Description[pt]": "Fornece o fuso-horário do sistema às aplicações",
        "Description[pt_BR]": "Fornece o fuso horário do sistema para os aplicativos",
        "Description[ro]": "Oferă aplicațiilor fusul orar al sistemului",
        "Description[ru]": "Предоставляет данные о системном часовом поясе приложениям",
        "Description[sk]": "Poskytuje systémové časové pásma aplikáciám",
        "Description[sl]": "Programom nudi dostop do sistemskega časovnega pasu",
        "Description[sv]": "Tillhandahåller systemets tidszon till program",
        "Description[ta]": "கணினியின் கால மண்டலத்தை செயலிகளுக்கு தெரியப்படுத்தும்",
        "Description[tr]": "Sistem zaman dilimini uygulamalara sunar",
        "Description[uk]": "Надає дані щодо часового поясу системи програмам",
        "Description[vi]": "Cung cấp múi giờ hệ thống cho các ứng dụng",
        "Description[x-test]": "xxProvides the system's time zone to applicationsxx",
        "Description[zh_CN]": "为应用程序提供系统时区信息",
        "Name": "Time Zone",
        "Name[ar]": "المنطقة الزمنية",
        "Name[ast]": "Fusu horariu",
        "Name[az]": "Saat Qurşağı",
        "Name[bg]": "Часови пояс",
        "Name[bn]": "টাইম জোন",
        "Name[bs]": "Vremenska zona",
        "Name[ca@valencia]": "Zona horària",
        "Name[ca]": "Zona horària",
        "Name[cs]": "Časové pásmo",
        "Name[da]": "Tidszone",
        "Name[de]": "Zeitzone",
        "Name[el]": "Ζώνη ώρας",
        "Name[en_GB]": "Time Zone",
        "Name[eo]": "Horzono",
        "Name[es]": "Zona horaria",
        "Name[et]": "Ajavöönd",
        "Name[eu]": "Ordu-eremua",
        "Name[fa]": "ناحیه زمانی",
        "Name[fi]": "Aikavyöhyke",
        "Name[fr]": "Fuseau horaire",
        "Name[ga]": "Crios Ama",
        "Name[gl]": "Fuso horario",
        "Name[gu]": "સમય વિસ્તાર",
        "Name[he]": "איזור זמן",
        "Name[hi]": "समय क्षेत्र",
        "Name[hr]": "Vremenska zona",
        "Name[hsb]": "Časowy pas",
        "Name[hu]": "Időzóna",
        "Name[ia]": "Fuso horari",
        "Name[id]": "Zona Waktu",
        "Name[is]": "Tímabelti",
        "Name[it]": "Fuso orario",
        "Name[ja]": "タイムゾーン",
        "Name[kk]": "Уақыт белдеуі",
        "Name[km]": "​តំបន់​ពេល​វេលា",
        "Name[kn]": "ಸಮಯವಲಯ (ಟೈಮ್ ಜೋನ್)",
        "Name[ko]": "시간대",
        "Name[lt]": "Laiko juosta",
        "Name[lv]": "Laika josla",
        "Name[mai]": "समय क्षेत्र",
        "Name[ml]": "സമയമേഖല",
        "Name[mr]": "वेळ क्षेत्र",
        "Name[nb]": "Tidssone",
        "Name[nds]": "Tietrebeet",
        "Name[nl]": "Tijdzone",
        "Name[nn]": "Tidssone",
        "Name[pa]": "ਸਮਾਂ ਖੇਤਰ",
        "Name[pl]": "Strefa czasowa",
        "Name[pt]": "Fuso-Horário",
        "Name[pt_BR]": "Fuso horário",
        "Name[ro]": "Fus orar",
        "Name[ru]": "Часовой пояс",
        "Name[si]": "කාල කලාපය",
        "Name[sk]": "Časové pásmo",
        "Name[sl]": "Časovni pas",
        "Name[sr@ijekavian]": "Временска зона",
        "Name[sr@ijekavianlatin]": "Vremenska zona",
        "Name[sr@latin]": "Vremenska zona",
        "Name[sr]": "Временска зона",
        "Name[sv]": "Tidszon",
        "Name[ta]": "கால மண்டலம்",
        "Name[tg]": "Минтақаи вақт",
        "Name[th]": "เขตเวลา",
        "Name[tr]": "Zaman Dilimi",
        "Name[ug]": "ۋاقىت رايونى",
        "Name[uk]": "Часовий пояс",
        "Name[vi]": "Múi giờ",
        "Name[wa]": "Coisse ås eures",
        "Name[x-test]": "xxTime Zonexx",
        "Name[zh_CN]": "时区",
        "Name[zh_TW]": "時區"
    },
    "X-KDE-Kded-autoload": true,
    "X-KDE-Kded-load-on-demand": true
}
